{
  "project_info": {
    "project_number": "551378209475",
    "firebase_url": "https://app-x0.firebaseio.com",
    "project_id": "app-x0",
    "storage_bucket": "app-x0.appspot.com"
  },
  "client": [
    {
      "client_info": {
        "mobilesdk_app_id": "1:551378209475:android:263a65c32cf5690c72f076",
        "android_client_info": {
          "package_name": "com.zaqqasatrio.appx0f"
        }
      },
      "oauth_client": [
        {
          "client_id": "551378209475-l98rin8527232v0qbhufp3t034g52cam.apps.googleusercontent.com",
          "client_type": 3
        }
      ],
      "api_key": [
        {
          "current_key": "AIzaSyBIkM5pdOdfTq8u97XW7wkWJp1f5Zbyl34"
        }
      ],
      "services": {
        "appinvite_service": {
          "other_platform_oauth_client": [
            {
              "client_id": "551378209475-l98rin8527232v0qbhufp3t034g52cam.apps.googleusercontent.com",
              "client_type": 3
            }
          ]
        }
      }
    }
  ],
  "configuration_version": "1"
}